<?xml version="1.0" encoding="UTF-8"?>
<svg width="422" height="90" viewBox="90 90 422 90" xmlns="http://www.w3.org/2000/svg">
 <defs>
  <clipPath id="a">
   <path d="M0 216h482V0H0v216z"/>
  </clipPath>
 </defs>
 <g transform="matrix(1.25 0 0 -1.25 0 270)" clip-path="url(#a)">
  <path d="M394.94 111.41h-10.858V86.406h-7.38v25.004h-5.182v5.965h5.182v4.308c0 3.254 1.059 5.92 3.178 7.998 2.119 2.079 4.835 3.118 8.149 3.118.883 0 1.667-.045 2.35-.135a9.37 9.37 0 0 0 1.807-.407v-6.296c-.241.14-.663.311-1.265.512-.603.2-1.296.301-2.078.301-1.528 0-2.702-.477-3.526-1.431s-1.235-2.365-1.235-4.232v-3.736h10.858v6.959l7.321 2.229v-9.188h7.381v-5.965h-7.381V96.92c0-1.909.346-3.254 1.039-4.037s1.782-1.175 3.269-1.175c.421 0 .928.1 1.521.301a7.178 7.178 0 0 1 1.552.723v-6.025c-.463-.261-1.231-.502-2.305-.723s-2.134-.331-3.178-.331c-3.073 0-5.378.817-6.914 2.455-1.537 1.637-2.305 4.102-2.305 7.396v15.906zm-48.407-9.731c0-3.233.733-5.703 2.199-7.411 1.466-1.707 3.565-2.56 6.296-2.56 2.652 0 4.67.853 6.055 2.56 1.386 1.708 2.079 4.238 2.079 7.592 0 3.334-.718 5.849-2.154 7.547-1.436 1.697-3.45 2.545-6.04 2.545-2.671 0-4.745-.888-6.221-2.666-1.476-1.777-2.214-4.313-2.214-7.607m-7.592-.24c0 5.121 1.446 9.177 4.338 12.17s6.909 4.489 12.05 4.489c4.841 0 8.621-1.441 11.343-4.323 2.721-2.883 4.082-6.774 4.082-11.674 0-5.021-1.447-9.018-4.338-11.99-2.892-2.973-6.829-4.458-11.81-4.458-4.8 0-8.611 1.41-11.432 4.232-2.822 2.821-4.233 6.673-4.233 11.554m-16.417 7.802c0-1.045.331-1.863.994-2.456.662-.592 2.128-1.34 4.398-2.243 2.912-1.166 4.956-2.476 6.131-3.932s1.762-3.219 1.762-5.287c0-2.912-1.12-5.252-3.359-7.019-2.24-1.768-5.267-2.651-9.083-2.651-1.285 0-2.706.155-4.263.467-1.556.311-2.877.707-3.961 1.19v7.169a17.945 17.945 0 0 1 4.278-2.198c1.526-.543 2.911-.814 4.157-.814 1.647 0 2.862.231 3.645.693.784.461 1.175 1.235 1.175 2.319 0 1.005-.406 1.853-1.22 2.546-.813.693-2.355 1.492-4.624 2.395-2.691 1.125-4.599 2.39-5.724 3.796s-1.687 3.193-1.687 5.362c0 2.792 1.109 5.086 3.329 6.884 2.218 1.797 5.096 2.696 8.631 2.696 1.084 0 2.3-.12 3.645-.361 1.346-.242 2.47-.553 3.374-.934v-6.929c-.964.643-2.089 1.194-3.374 1.657-1.286.462-2.561.693-3.826.693-1.386 0-2.465-.271-3.238-.813-.774-.543-1.16-1.286-1.16-2.23m-35.066-7.562c0-3.233.733-5.703 2.2-7.411 1.465-1.707 3.564-2.56 6.295-2.56 2.652 0 4.67.853 6.055 2.56 1.386 1.708 2.079 4.238 2.079 7.592 0 3.334-.718 5.849-2.154 7.547-1.436 1.697-3.449 2.545-6.039 2.545-2.672 0-4.745-.888-6.222-2.666-1.476-1.777-2.214-4.313-2.214-7.607m-7.592-.24c0 5.121 1.446 9.177 4.338 12.17 2.893 2.993 6.909 4.489 12.051 4.489 4.84 0 8.621-1.441 11.342-4.323 2.721-2.883 4.082-6.774 4.082-11.674 0-5.021-1.446-9.018-4.338-11.99-2.892-2.973-6.828-4.458-11.809-4.458-4.801 0-8.611 1.41-11.433 4.232-2.822 2.821-4.233 6.673-4.233 11.554m-3.136 16.448c.582 0 1.105-.041 1.567-.121s.853-.18 1.175-.301v-7.38c-.382.281-.939.546-1.672.798-.733.251-1.622.376-2.666.376-1.788 0-3.299-.753-4.534-2.259s-1.853-3.826-1.853-6.959V86.406h-7.291v30.969h7.291v-4.88h.12c.663 1.687 1.667 3.007 3.013 3.961 1.346.953 2.962 1.431 4.85 1.431m-27.956-26.179c1.084 0 2.279.25 3.585.753a15.06 15.06 0 0 1 3.615 1.988v-6.778c-1.165-.663-2.485-1.165-3.962-1.506-1.475-.342-3.098-.512-4.865-.512-4.559 0-8.265 1.44-11.116 4.323-2.852 2.881-4.278 6.562-4.278 11.04 0 4.981 1.456 9.083 4.369 12.307 2.911 3.224 7.038 4.835 12.381 4.835 1.366 0 2.746-.176 4.143-.527 1.395-.352 2.504-.758 3.328-1.22v-6.989c-1.125.823-2.274 1.461-3.45 1.913a9.966 9.966 0 0 1-3.599.678c-2.872 0-5.192-.934-6.959-2.802-1.768-1.868-2.652-4.388-2.652-7.562 0-3.132.849-5.573 2.546-7.32 1.697-1.748 4.002-2.621 6.914-2.621m-22.112-5.302h-7.29v30.969h7.29V86.406zm-8.044 39.916c0 1.205.437 2.214 1.311 3.028.874.813 1.913 1.22 3.118 1.22 1.285 0 2.35-.417 3.193-1.25.844-.834 1.266-1.833 1.266-2.998 0-1.185-.432-2.179-1.296-2.982-.864-.804-1.918-1.205-3.163-1.205-1.246 0-2.295.406-3.148 1.219-.854.815-1.281 1.803-1.281 2.968m-6.273 3.284v-43.2h-7.501v33.861h-.12l-13.407-33.861h-4.97l-13.738 33.861h-.09V86.406h-6.929v43.2h10.755l12.412-32.024h.18l13.105 32.024h10.303z" fill="#737373"/>
  <path d="M106.21 109.79H71.992v34.218h34.218V109.79z" fill="#f25022"/>
  <path d="M143.99 109.79h-34.218v34.218h34.218V109.79z" fill="#7fba00"/>
  <path d="M106.21 72.007H71.992v34.218h34.218V72.007z" fill="#00a4ef"/>
  <path d="M143.99 72.007h-34.218v34.218h34.218V72.007z" fill="#ffb900"/>
 </g>
</svg>
