09:21:09.725: Using EGL/X11
09:21:09.726: CPU Name: Intel(R) Core(TM) i5-7400 CPU @ 3.00GHz
09:21:09.726: CPU Speed: 3300.178MHz
09:21:09.726: Physical Cores: 4, Logical Cores: 4
09:21:09.726: Physical Memory: 32060MB Total, 6131MB Free
09:21:09.726: Kernel Version: Linux 6.9.7-amd64
09:21:09.726: Distribution: "Debian GNU/Linux" Unknown
09:21:09.726: Desktop Environment: GNOME (gnome-xorg)
09:21:09.726: Session Type: x11
09:21:09.726: Window System: X11.0, Vendor: The X.Org Foundation, Version: 1.21.1
09:21:09.727: Qt Version: 6.6.2 (runtime), 6.6.2 (compiled)
09:21:09.727: Portable mode: false
09:21:09.775: OBS 30.1.2.1-1+b2 (linux)
09:21:09.775: ---------------------------------
09:21:09.791: ---------------------------------
09:21:09.791: audio settings reset:
09:21:09.791: 	samples per sec: 48000
09:21:09.791: 	speakers:        2
09:21:09.791: 	max buffering:   960 milliseconds
09:21:09.791: 	buffering type:  dynamically increasing
09:21:09.793: ---------------------------------
09:21:09.793: Initializing OpenGL...
09:21:09.897: Loading up OpenGL on adapter AMD AMD Radeon RX 6800 (radeonsi, navi21, LLVM 17.0.6, DRM 3.57, 6.9.7-amd64)
09:21:09.897: OpenGL loaded successfully, version 4.6 (Core Profile) Mesa 24.1.3-2, shading language 4.60
09:21:09.940: ---------------------------------
09:21:09.940: video settings reset:
09:21:09.940: 	base resolution:   1920x1080
09:21:09.940: 	output resolution: 1920x1080
09:21:09.940: 	downscale filter:  Bicubic
09:21:09.940: 	fps:               30/1
09:21:09.940: 	format:            NV12
09:21:09.940: 	YUV mode:          Rec. 709/Partial
09:21:09.941: NV12 texture support not available
09:21:09.941: P010 texture support not available
09:21:09.944: Audio monitoring device:
09:21:09.944: 	name: Default
09:21:09.944: 	id: default
09:21:09.944: ---------------------------------
09:21:09.954: Failed to load 'en-GB' text for module: '3d-effect.so'
09:21:09.954: [3D Effect] loaded version 0.1.0
09:21:09.988: Failed to load 'en-US' text for module: 'decklink-captions.so'
09:21:09.997: Failed to load 'en-US' text for module: 'decklink-output-ui.so'
09:21:10.007: A DeckLink iterator could not be created.  The DeckLink drivers may not be installed
09:21:10.007: Failed to initialize module 'decklink.so'
09:21:10.062: Failed to load 'en-GB' text for module: 'gradient-source.so'
09:21:10.062: [Gradient Source] loaded version 0.3.2
09:21:10.083: Failed to load 'en-GB' text for module: 'libadvanced-scene-switcher.so'
09:21:10.083: [adv-ss] version: GIT-NOTFOUND
09:21:10.083: [adv-ss] version: GITDIR-NOTFOUND
09:21:10.084: [adv-ss] attempting to load "/usr/lib/x86_64-linux-gnu/obs-plugins/adv-ss-plugins/advanced-scene-switcher-base.so"
09:21:10.088: [adv-ss] successfully loaded "/usr/lib/x86_64-linux-gnu/obs-plugins/adv-ss-plugins/advanced-scene-switcher-base.so"
09:21:10.088: [adv-ss] attempting to load "/usr/lib/x86_64-linux-gnu/obs-plugins/adv-ss-plugins/advanced-scene-switcher-opencv.so"
09:21:10.121: [adv-ss] successfully loaded "/usr/lib/x86_64-linux-gnu/obs-plugins/adv-ss-plugins/advanced-scene-switcher-opencv.so"
09:21:10.201: [pipewire] Available captures:
09:21:10.201: [pipewire]     - Desktop capture
09:21:10.201: [pipewire]     - Window capture
09:21:10.225: v4l2loopback not installed, virtual camera disabled
09:21:10.236: Failed to load 'en-GB' text for module: 'move-transition.so'
09:21:10.236: [Move Transition] loaded version 3.0.1
09:21:10.345: VAAPI: API version 1.22
09:21:10.346: FFmpeg VAAPI H264 encoding supported
09:21:10.356: FFmpeg VAAPI AV1 encoding not supported
09:21:10.365: FFmpeg VAAPI HEVC encoding supported
09:21:10.422: [obs-websocket] [obs_module_load] you can haz websockets (Version: 5.4.2 | RPC Version: 1)
09:21:10.422: [obs-websocket] [obs_module_load] Qt version (compile-time): 6.6.2 | Qt version (run-time): 6.6.2
09:21:10.422: [obs-websocket] [obs_module_load] Linked ASIO Version: 102801
09:21:10.428: [obs-websocket] [obs_module_load] Module loaded.
09:21:10.466: [Scene As Transition] loaded version 1.1.1
09:21:10.478: Failed to load 'en-GB' text for module: 'scene-collection-manager.so'
09:21:10.478: [Scene Collection Manager] loaded version 0.1.1
09:21:10.502: Failed to load 'en-GB' text for module: 'time-source.so'
09:21:10.514: Failed to load 'en-GB' text for module: 'transition-table.so'
09:21:10.514: [Transition Table] loaded version 0.2.7
09:21:10.526: Failed to load 'en-GB' text for module: 'vintage-filter.so'
09:21:10.540: [vlc-video]: VLC 3.0.21 Vetinari found, VLC video source enabled
09:21:10.551: Failed to load 'en-GB' text for module: 'markdown.so'
09:21:10.551: [markdown] loaded version 0.2.5
09:21:10.563: Failed to load 'en-GB' text for module: 'libobs-linuxbrowser.so'
09:21:10.563: ---------------------------------
09:21:10.563:   Loaded Modules:
09:21:10.563:     libobs-linuxbrowser.so
09:21:10.564:     markdown.so
09:21:10.564:     vlc-video.so
09:21:10.564:     vintage-filter.so
09:21:10.564:     transition-table.so
09:21:10.564:     time-source.so
09:21:10.564:     text-freetype2.so
09:21:10.564:     scene-collection-manager.so
09:21:10.564:     scene-as-transition.so
09:21:10.564:     rtmp-services.so
09:21:10.564:     obs-x264.so
09:21:10.564:     obs-websocket.so
09:21:10.564:     obs-transitions.so
09:21:10.564:     obs-outputs.so
09:21:10.564:     obs-filters.so
09:21:10.564:     obs-ffmpeg.so
09:21:10.564:     move-transition.so
09:21:10.564:     linux-v4l2.so
09:21:10.564:     linux-pulseaudio.so
09:21:10.564:     linux-pipewire.so
09:21:10.564:     linux-jack.so
09:21:10.564:     linux-capture.so
09:21:10.564:     linux-alsa.so
09:21:10.564:     libadvanced-scene-switcher.so
09:21:10.564:     image-source.so
09:21:10.564:     gradient-source.so
09:21:10.564:     frontend-tools.so
09:21:10.564:     decklink-output-ui.so
09:21:10.564:     decklink-captions.so
09:21:10.564:     3d-effect.so
09:21:10.564: ---------------------------------
09:21:10.564: ==== Startup complete ===============================================
09:21:10.624: All scene data cleared
09:21:10.624: ------------------------------------------------
09:21:10.629: pulse-input: Server name: 'PulseAudio (on PipeWire 1.2.0) 15.0.0'
09:21:10.630: pulse-input: Audio format: s32le, 48000 Hz, 2 channels
09:21:10.630: pulse-input: Started recording from 'alsa_output.pci-0000_00_1f.3.analog-stereo.monitor' (default)
09:21:10.630: [Loaded global audio device]: 'Desktop Audio'
09:21:10.630: pulse-input: Server name: 'PulseAudio (on PipeWire 1.2.0) 15.0.0'
09:21:10.630: pulse-input: Audio format: s16le, 32000 Hz, 2 channels
09:21:10.631: pulse-input: Started recording from 'alsa_input.usb-046d_C922_Pro_Stream_Webcam_4B3DD6BF-02.analog-stereo' (default)
09:21:10.631: [Loaded global audio device]: 'Mic/Aux'
09:21:11.243: [Media Source 'sho-urbec-clip']: settings:
09:21:11.243: 	input:                   /home/videoteam/loopy/shoutouts/bottle-harvest-rescaled.mp4
09:21:11.243: 	input_format:            (null)
09:21:11.243: 	speed:                   100
09:21:11.243: 	is_looping:              yes
09:21:11.243: 	is_linear_alpha:         no
09:21:11.243: 	is_hw_decoding:          yes
09:21:11.243: 	is_clear_on_media_end:   no
09:21:11.243: 	restart_on_activate:     yes
09:21:11.243: 	close_when_inactive:     no
09:21:11.243: 	full_decode:             no
09:21:11.243: 	ffmpeg_options:          
09:21:11.276: Switched to scene 'sho-urbec'
09:21:11.276: [adv-ss] trying to reconnect to  in 10 seconds.
09:21:11.277: ------------------------------------------------
09:21:11.277: Loaded scenes:
09:21:11.277: - scene 'music':
09:21:11.277: - scene 'wallpaper':
09:21:11.277:     - source: 'VLC Video Source' (vlc_source)
09:21:11.277:     - source: 'emerald_background' (image_source)
09:21:11.277: - scene 'lower-third':
09:21:11.277:     - source: 'Group' (group)
09:21:11.277:         - source: 'Gray' (color_source_v3)
09:21:11.277:             - filter: 'Colour Key' (color_key_filter_v2)
09:21:11.277:         - source: 'Bar text' (text_ft2_source_v2)
09:21:11.277:         - source: 'dc24_logobig' (image_source)
09:21:11.277:         - source: 'TopBarText' (text_ft2_source_v2)
09:21:11.277:         - source: 'the-time' (time_source)
09:21:11.277: - scene 'welcome':
09:21:11.277:     - source: 'wallpaper' (scene)
09:21:11.277:     - source: 'dc24_logobig 2' (image_source)
09:21:11.277:     - source: 'VLC Video Source' (vlc_source)
09:21:11.277: - scene 'spo_platinum':
09:21:11.277:     - source: 'lower-third' (scene)
09:21:11.277:     - source: 'White' (color_source_v3)
09:21:11.277:     - source: 'Platinum_gradient' (gradient_source)
09:21:11.277:     - source: 'spo_plat_thanks' (text_ft2_source_v2)
09:21:11.277:     - source: 'sponsors_platinum_logos' (image_source)
09:21:11.277:     - source: 'loopy_sponsors_text' (text_ft2_source_v2)
09:21:11.277: - scene 'spo_gold':
09:21:11.277:     - source: 'lower-third' (scene)
09:21:11.277:     - source: 'White' (color_source_v3)
09:21:11.277:     - source: 'Platinum_gradient 2' (gradient_source)
09:21:11.277:     - source: 'spo_gold_thanks 2' (text_ft2_source_v2)
09:21:11.277:     - source: 'sponsors_gold' (image_source)
09:21:11.277:     - source: 'loopy_sponsors_text' (text_ft2_source_v2)
09:21:11.277: - scene 'spo_silver':
09:21:11.277:     - source: 'lower-third' (scene)
09:21:11.277:     - source: 'Group 2' (group)
09:21:11.277:         - source: 'White' (color_source_v3)
09:21:11.277:         - source: 'gradient_silver' (gradient_source)
09:21:11.277:         - source: 'spo_silver_thanks' (text_ft2_source_v2)
09:21:11.277:         - source: 'sponsors_silver' (image_source)
09:21:11.277:     - source: 'loopy_sponsors_text' (text_ft2_source_v2)
09:21:11.277: - scene 'spo_platinum announce':
09:21:11.277:     - source: 'lower-third' (scene)
09:21:11.277:     - source: 'White' (color_source_v3)
09:21:11.277:     - source: 'Platinum_gradient' (gradient_source)
09:21:11.277:     - source: 'spo_plat_thanks' (text_ft2_source_v2)
09:21:11.277:     - source: 'sponsors_platinum_logos' (image_source)
09:21:11.277:     - source: 'announcements-text' (text_ft2_source_v2)
09:21:11.277:     - source: 'announcements_html' (linuxbrowser-source)
09:21:11.277:     - source: 'loopy_sponsors_text' (text_ft2_source_v2)
09:21:11.277: - scene 'spo_gold_announce':
09:21:11.277:     - source: 'lower-third' (scene)
09:21:11.277:     - source: 'White' (color_source_v3)
09:21:11.277:     - source: 'Platinum_gradient 2' (gradient_source)
09:21:11.277:     - source: 'spo_gold_thanks 2' (text_ft2_source_v2)
09:21:11.277:     - source: 'loopy_sponsors_text' (text_ft2_source_v2)
09:21:11.277:     - source: 'announcements-text' (text_ft2_source_v2)
09:21:11.277:     - source: 'spo_gold_side_announce' (image_source)
09:21:11.277:     - source: 'announcements_html' (linuxbrowser-source)
09:21:11.277: - scene 'spo_silver_announce':
09:21:11.277:     - source: 'lower-third' (scene)
09:21:11.277:     - source: 'Group 3' (group)
09:21:11.277:         - source: 'White' (color_source_v3)
09:21:11.277:         - source: 'gradient_silver' (gradient_source)
09:21:11.277:         - source: 'spo_silver_thanks' (text_ft2_source_v2)
09:21:11.277:         - source: 'sponsors_silver_side' (image_source)
09:21:11.277:         - source: 'announcements-text' (text_ft2_source_v2)
09:21:11.277:     - source: 'announcements_html' (linuxbrowser-source)
09:21:11.277:     - source: 'loopy_sponsors_text' (text_ft2_source_v2)
09:21:11.277: - scene 'upcoming':
09:21:11.277:     - source: 'lower-third' (scene)
09:21:11.277:     - source: 'loopy_schedule-text' (text_ft2_source_v2)
09:21:11.277: - scene 'shoutouts-base':
09:21:11.277:     - source: 'loopy_shout_out-text' (text_ft2_source_v2)
09:21:11.277: - scene 'sho-urbec':
09:21:11.277:     - source: 'wallpaper' (scene)
09:21:11.277:     - source: 'sho-urbec-clip' (ffmpeg_source)
09:21:11.277:     - source: 'shoutouts-base' (scene)
09:21:11.277:     - source: 'lower-third' (scene)
09:21:11.277: ------------------------------------------------
09:21:11.282: [adv-ss] started
09:21:11.444: adding 21 milliseconds of audio buffering, total audio buffering is now 21 milliseconds (source: Desktop Audio)
09:21:11.444: 
09:21:14.890: User switched to scene 'music'
09:21:16.215: User switched to scene 'wallpaper'
09:21:16.880: User switched to scene 'lower-third'
09:21:23.393: User switched to scene 'welcome'
09:21:25.966: User switched to scene 'lower-third'
09:21:31.718: User switched to scene 'welcome'
09:21:32.675: User switched to scene 'spo_platinum'
09:21:33.848: User switched to scene 'spo_gold'
09:21:34.596: User switched to scene 'spo_silver'
09:21:35.263: User switched to scene 'spo_platinum announce'
09:21:35.897: User switched to scene 'spo_gold_announce'
09:21:36.471: User switched to scene 'spo_silver_announce'
09:21:37.033: User switched to scene 'upcoming'
09:21:37.722: User switched to scene 'shoutouts-base'
09:21:38.227: User switched to scene 'sho-urbec'
09:21:39.350: User switched to scene 'shoutouts-base'
09:21:39.570: User switched to scene 'upcoming'
09:21:39.746: User switched to scene 'spo_silver_announce'
09:21:39.959: User switched to scene 'spo_gold_announce'
09:21:40.139: User switched to scene 'spo_platinum announce'
09:21:40.354: User switched to scene 'spo_silver'
09:21:40.570: User switched to scene 'spo_gold'
09:21:40.803: User switched to scene 'spo_platinum'
09:21:41.308: User switched to scene 'welcome'
09:21:42.038: User switched to scene 'spo_platinum'
09:21:42.763: User switched to scene 'spo_gold'
09:21:43.521: User switched to scene 'spo_platinum'
09:21:43.768: User switched to scene 'welcome'
09:21:44.194: User switched to scene 'lower-third'
09:21:45.280: User switched to scene 'wallpaper'
09:21:46.149: User switched to scene 'lower-third'
09:21:47.115: User switched to scene 'wallpaper'
09:21:47.678: User switched to scene 'lower-third'
09:22:17.166: User added scene 'lower-third-with-wallpaper'
09:22:17.193: User switched to scene 'lower-third-with-wallpaper'
09:22:25.700: User added source 'wallpaper' (scene) to scene 'lower-third-with-wallpaper'
09:22:31.633: User added source 'lower-third' (scene) to scene 'lower-third-with-wallpaper'
09:22:37.008: User switched to scene 'spo_platinum announce'
09:22:53.072: User Removed source 'lower-third' (scene) from scene 'spo_platinum announce'
09:22:58.869: User added source 'lower-third-with-wallpaper' (scene) to scene 'spo_platinum announce'
09:23:07.011: User switched to scene 'spo_gold_announce'
09:23:10.918: User Removed source 'lower-third' (scene) from scene 'spo_gold_announce'
09:23:11.623: User added source 'lower-third-with-wallpaper' (scene) to scene 'spo_gold_announce'
09:23:16.330: User switched to scene 'spo_silver_announce'
09:23:19.764: User Removed source 'lower-third' (scene) from scene 'spo_silver_announce'
09:23:20.542: User added source 'lower-third-with-wallpaper' (scene) to scene 'spo_silver_announce'
09:23:24.097: User switched to scene 'upcoming'
09:23:25.588: User added source 'lower-third-with-wallpaper' (scene) to scene 'upcoming'
09:23:30.206: User Removed source 'lower-third' (scene) from scene 'upcoming'
09:23:32.468: User switched to scene 'shoutouts-base'
09:23:33.696: User added source 'lower-third-with-wallpaper' (scene) to scene 'shoutouts-base'
09:23:38.915: User switched to scene 'sho-urbec'
09:23:38.926: User Removed scene 'shoutouts-base'
09:23:41.468: User added scene 'shoutouts-base'
09:23:41.468: User added source 'lower-third-with-wallpaper' (scene) to scene 'shoutouts-base'
09:23:41.468: User added source 'loopy_shout_out-text' (text_ft2_source_v2) to scene 'shoutouts-base'
09:23:41.469: User Removed source 'wallpaper' (scene) from scene 'sho-urbec'
09:23:41.469: User Removed source 'sho-urbec-clip' (ffmpeg_source) from scene 'sho-urbec'
09:23:41.469: User Removed source 'lower-third' (scene) from scene 'sho-urbec'
09:23:41.472: User added source 'wallpaper' (scene) to scene 'sho-urbec'
09:23:41.475: User added source 'sho-urbec-clip' (ffmpeg_source) to scene 'sho-urbec'
09:23:41.479: User added source 'shoutouts-base' (scene) to scene 'sho-urbec'
09:23:41.482: User added source 'lower-third' (scene) to scene 'sho-urbec'
09:23:41.492: Switched to scene 'shoutouts-base'
09:23:49.040: User Removed source 'lower-third-with-wallpaper' (scene) from scene 'shoutouts-base'
09:23:52.183: User switched to scene 'sho-urbec'
09:24:03.028: User switched to scene 'spo_silver_announce'
09:24:04.066: User switched to scene 'spo_gold_announce'
09:25:41.078: User switched to scene 'spo_silver_announce'
09:25:42.219: User switched to scene 'spo_gold_announce'
09:25:42.690: User switched to scene 'spo_platinum announce'
09:25:43.314: User switched to scene 'spo_gold_announce'
09:25:43.763: User switched to scene 'spo_silver_announce'
09:25:44.379: User switched to scene 'spo_gold_announce'
09:25:44.745: User switched to scene 'spo_platinum announce'
09:25:45.240: User switched to scene 'spo_gold_announce'
09:25:45.676: User switched to scene 'spo_silver_announce'
09:25:46.334: User switched to scene 'spo_gold_announce'
09:25:47.371: User switched to scene 'spo_platinum announce'
09:25:47.927: User switched to scene 'spo_gold_announce'
09:25:55.750: User switched to scene 'spo_platinum announce'
09:25:56.650: User switched to scene 'spo_gold_announce'
09:25:57.505: User switched to scene 'spo_platinum announce'
09:25:58.509: User switched to scene 'spo_gold_announce'
09:26:04.380: User switched to scene 'spo_platinum announce'
09:26:05.462: User switched to scene 'spo_gold_announce'
09:26:08.362: User switched to scene 'spo_platinum announce'
09:26:09.353: User switched to scene 'spo_gold_announce'
09:26:10.008: User switched to scene 'spo_platinum announce'
09:26:10.502: User switched to scene 'spo_gold_announce'
09:26:11.101: User switched to scene 'spo_silver_announce'
09:26:11.684: User switched to scene 'spo_gold_announce'
09:26:12.010: User switched to scene 'spo_platinum announce'
09:26:12.484: User switched to scene 'spo_gold_announce'
09:26:12.843: User switched to scene 'spo_silver_announce'
09:26:13.305: User switched to scene 'spo_gold_announce'
09:26:13.569: User switched to scene 'spo_platinum announce'
09:26:15.950: Last log entry repeated for 6 more lines
09:26:15.951: User switched to scene 'upcoming'
09:26:16.414: User switched to scene 'shoutouts-base'
09:26:16.892: User switched to scene 'upcoming'
09:26:17.407: User switched to scene 'spo_silver_announce'
09:26:17.915: User switched to scene 'spo_gold_announce'
09:26:18.565: User switched to scene 'spo_platinum announce'
09:26:19.013: User switched to scene 'spo_silver'
09:26:19.465: User switched to scene 'spo_gold'
09:26:19.838: User switched to scene 'spo_platinum'
09:26:20.185: User switched to scene 'welcome'
09:26:20.753: User switched to scene 'lower-third-with-wallpaper'
09:26:21.143: User switched to scene 'lower-third'
09:26:21.573: User switched to scene 'wallpaper'
09:26:21.979: User switched to scene 'music'
09:26:22.789: User switched to scene 'wallpaper'
09:26:23.159: User switched to scene 'lower-third'
09:26:23.574: User switched to scene 'lower-third-with-wallpaper'
09:26:24.053: User switched to scene 'welcome'
09:26:24.682: User switched to scene 'spo_platinum'
09:26:25.309: User switched to scene 'spo_gold'
09:26:26.034: User switched to scene 'spo_silver'
09:26:26.648: User switched to scene 'spo_platinum announce'
09:26:27.239: User switched to scene 'spo_silver'
09:26:27.645: User switched to scene 'spo_gold'
09:26:28.075: User switched to scene 'spo_platinum'
09:26:28.490: User switched to scene 'welcome'
09:26:28.936: User switched to scene 'lower-third-with-wallpaper'
09:26:29.569: User switched to scene 'welcome'
09:26:30.072: User switched to scene 'spo_platinum'
09:26:30.615: User switched to scene 'spo_gold'
09:26:31.172: User switched to scene 'spo_silver'
09:26:31.965: User switched to scene 'spo_gold'
09:26:32.337: User switched to scene 'spo_platinum'
09:26:33.127: User switched to scene 'welcome'
09:26:33.927: User switched to scene 'spo_platinum'
09:26:34.170: User switched to scene 'spo_gold'
09:26:34.877: User switched to scene 'spo_silver'
09:26:35.266: User switched to scene 'spo_platinum announce'
09:26:39.789: User switched to scene 'spo_platinum'
09:26:43.260: User Removed source 'lower-third' (scene) from scene 'spo_platinum'
09:26:53.775: User added source 'lower-third-with-wallpaper' (scene) to scene 'spo_platinum'
09:26:59.143: User switched to scene 'spo_gold'
09:27:01.969: User Removed source 'lower-third' (scene) from scene 'spo_gold'
09:27:02.569: User added source 'lower-third-with-wallpaper' (scene) to scene 'spo_gold'
09:27:05.239: User switched to scene 'spo_silver'
09:27:09.348: User Removed source 'lower-third' (scene) from scene 'spo_silver'
09:27:09.904: User added source 'lower-third-with-wallpaper' (scene) to scene 'spo_silver'
09:27:13.437: User switched to scene 'spo_platinum'
09:27:14.678: User switched to scene 'spo_gold'
09:27:15.575: User switched to scene 'spo_silver'
09:27:16.164: User switched to scene 'spo_platinum announce'
09:27:17.156: User switched to scene 'spo_gold_announce'
09:27:17.606: User switched to scene 'spo_silver_announce'
09:27:18.156: User switched to scene 'upcoming'
09:27:18.674: User switched to scene 'spo_silver_announce'
09:27:19.067: User switched to scene 'spo_gold_announce'
09:27:19.460: User switched to scene 'spo_platinum announce'
09:27:20.685: User switched to scene 'spo_gold_announce'
09:27:21.695: User switched to scene 'spo_silver_announce'
09:27:22.532: User switched to scene 'spo_gold_announce'
09:27:22.831: User switched to scene 'spo_platinum announce'
09:27:23.341: User switched to scene 'spo_gold_announce'
09:27:24.207: User switched to scene 'spo_silver_announce'
09:27:25.550: User switched to scene 'spo_gold_announce'
09:27:26.602: User switched to scene 'spo_platinum announce'
09:27:27.526: User switched to scene 'spo_gold_announce'
09:27:28.311: User switched to scene 'spo_silver_announce'
09:27:29.075: User switched to scene 'spo_gold_announce'
09:27:29.643: User switched to scene 'spo_platinum announce'
09:27:30.361: User switched to scene 'spo_gold_announce'
09:27:30.884: User switched to scene 'spo_silver_announce'
09:27:31.570: User switched to scene 'spo_gold_announce'
09:27:32.014: User switched to scene 'spo_platinum announce'
09:27:32.809: User switched to scene 'spo_gold_announce'
09:27:33.489: User switched to scene 'spo_silver_announce'
09:27:34.257: User switched to scene 'spo_gold_announce'
09:27:35.009: User switched to scene 'spo_platinum announce'
09:27:35.646: User switched to scene 'spo_gold_announce'
09:27:36.101: User switched to scene 'spo_silver_announce'
09:27:36.824: User switched to scene 'spo_gold_announce'
09:27:37.139: User switched to scene 'spo_platinum announce'
09:27:37.613: User switched to scene 'spo_gold_announce'
09:27:38.120: User switched to scene 'spo_silver_announce'
09:27:38.998: User switched to scene 'spo_gold_announce'
09:27:44.990: User switched to scene 'spo_silver_announce'
09:27:55.741: Last log entry repeated for 3 more lines
09:27:55.742: User Removed source 'lower-third-with-wallpaper' (scene) from scene 'spo_gold_announce'
09:27:56.467: User added source 'lower-third-with-wallpaper' (scene) to scene 'spo_gold_announce'
09:27:59.954: User switched to scene 'spo_silver_announce'
09:28:00.752: User switched to scene 'spo_gold_announce'
09:28:01.196: User switched to scene 'spo_silver'
09:28:02.298: User switched to scene 'spo_platinum announce'
09:28:04.816: User switched to scene 'spo_gold_announce'
09:28:05.249: User switched to scene 'spo_silver_announce'
09:28:06.966: User switched to scene 'spo_gold_announce'
09:28:08.204: User switched to scene 'spo_platinum announce'
09:28:09.358: User switched to scene 'spo_gold_announce'
09:28:09.858: User switched to scene 'upcoming'
09:28:11.093: User switched to scene 'spo_gold_announce'
09:28:11.854: User switched to scene 'spo_platinum announce'
09:28:12.377: User switched to scene 'spo_gold_announce'
09:28:13.179: User switched to scene 'spo_silver_announce'
09:28:14.068: User switched to scene 'spo_gold_announce'
09:28:14.393: User switched to scene 'spo_platinum announce'
09:28:14.688: User switched to scene 'spo_silver'
09:28:15.200: User switched to scene 'spo_platinum announce'
09:28:15.481: User switched to scene 'spo_gold_announce'
09:28:16.196: User switched to scene 'spo_silver_announce'
09:28:16.686: User switched to scene 'spo_gold_announce'
09:28:16.989: User switched to scene 'spo_platinum announce'
09:28:17.875: User switched to scene 'spo_gold_announce'
09:28:18.388: User switched to scene 'spo_silver_announce'
09:28:19.109: User switched to scene 'spo_gold_announce'
09:28:19.791: User switched to scene 'spo_platinum announce'
09:28:20.505: User switched to scene 'spo_gold_announce'
09:28:21.097: User switched to scene 'spo_platinum announce'
09:28:22.315: User switched to scene 'spo_gold_announce'
09:28:23.130: User switched to scene 'spo_silver_announce'
09:28:23.978: User switched to scene 'spo_gold_announce'
09:28:24.273: User switched to scene 'spo_platinum announce'
09:28:24.813: User switched to scene 'spo_gold_announce'
09:28:25.257: User switched to scene 'spo_silver_announce'
09:28:26.021: User switched to scene 'spo_gold_announce'
09:28:34.133: User switched to scene 'spo_platinum announce'
09:28:42.454: User Removed source 'announcements_html' (linuxbrowser-source) from scene 'spo_platinum announce'
09:28:42.834: User added source 'announcements_html' (linuxbrowser-source) to scene 'spo_platinum announce'
09:28:46.878: User switched to scene 'spo_gold_announce'
09:28:48.167: User switched to scene 'spo_platinum announce'
09:28:55.815: User switched to scene 'upcoming'
09:28:57.055: User switched to scene 'spo_silver_announce'
09:45:30.679: User switched to scene 'music'
09:45:31.989: User switched to scene 'wallpaper'
09:45:32.568: User switched to scene 'lower-third'
09:45:33.416: User switched to scene 'wallpaper'
09:45:34.122: User switched to scene 'lower-third'
09:45:34.695: User switched to scene 'lower-third-with-wallpaper'
09:45:35.644: User switched to scene 'welcome'
09:45:36.507: User switched to scene 'lower-third-with-wallpaper'
09:46:03.599: User switched to scene 'welcome'
09:46:04.276: User switched to scene 'spo_platinum'
09:46:05.586: User switched to scene 'spo_gold'
09:46:06.202: User switched to scene 'spo_platinum'
09:46:06.895: User switched to scene 'spo_gold'
09:46:07.393: User switched to scene 'spo_platinum'
09:46:08.443: User switched to scene 'spo_gold'
09:46:09.313: User switched to scene 'spo_silver'
09:46:10.290: User switched to scene 'spo_gold'
09:46:10.691: User switched to scene 'spo_platinum'
09:46:11.634: User switched to scene 'spo_gold'
09:46:12.201: User switched to scene 'spo_silver'
09:46:12.759: User switched to scene 'spo_platinum announce'
09:46:13.731: User switched to scene 'spo_silver'
09:46:14.100: User switched to scene 'spo_gold'
09:46:14.478: User switched to scene 'spo_platinum'
09:46:15.221: User switched to scene 'spo_gold'
09:46:16.356: User switched to scene 'spo_silver'
09:46:16.926: User switched to scene 'spo_platinum announce'
09:46:17.510: User switched to scene 'spo_silver'
09:46:17.830: User switched to scene 'spo_gold'
09:46:18.210: User switched to scene 'spo_platinum'
09:46:19.031: User switched to scene 'spo_gold'
09:46:19.762: User switched to scene 'spo_platinum'
09:46:20.937: User switched to scene 'spo_gold'
09:46:22.172: User switched to scene 'spo_silver'
09:46:23.144: User switched to scene 'spo_platinum announce'
09:46:23.992: User switched to scene 'spo_silver'
09:46:24.346: User switched to scene 'spo_gold'
09:46:25.168: User switched to scene 'spo_silver'
09:46:26.033: User switched to scene 'spo_gold'
09:46:26.377: User switched to scene 'spo_platinum'
09:46:27.079: User switched to scene 'spo_gold'
09:46:28.154: User switched to scene 'spo_silver'
09:46:29.615: User switched to scene 'spo_platinum announce'
09:46:39.626: User switched to scene 'spo_gold_announce'
09:46:40.453: User switched to scene 'spo_silver_announce'
09:46:40.902: User switched to scene 'upcoming'
09:46:41.450: User switched to scene 'spo_silver_announce'
09:46:41.811: User switched to scene 'spo_gold_announce'
09:46:42.033: User switched to scene 'spo_platinum announce'
09:46:42.869: User switched to scene 'spo_silver'
09:46:43.335: User switched to scene 'spo_platinum announce'
09:46:44.023: User switched to scene 'spo_gold_announce'
09:46:44.568: User switched to scene 'spo_silver_announce'
09:46:45.212: User switched to scene 'spo_gold_announce'
09:46:45.490: User switched to scene 'spo_platinum announce'
09:53:50.661: User switched to scene 'spo_gold_announce'
09:53:53.144: User switched to scene 'spo_silver_announce'
09:53:54.556: User switched to scene 'spo_gold_announce'
09:53:55.240: User switched to scene 'spo_platinum announce'
09:53:55.874: User switched to scene 'spo_gold_announce'
09:53:56.263: User switched to scene 'spo_silver_announce'
09:53:56.765: User switched to scene 'spo_gold_announce'
09:53:57.075: User switched to scene 'spo_platinum announce'
09:53:57.656: User switched to scene 'spo_gold_announce'
09:53:58.034: User switched to scene 'spo_silver_announce'
09:53:58.542: User switched to scene 'spo_gold_announce'
09:53:58.940: User switched to scene 'spo_platinum announce'
09:54:00.181: User switched to scene 'spo_gold_announce'
09:54:00.475: User switched to scene 'spo_silver_announce'
09:55:48.661: adding 21 milliseconds of audio buffering, total audio buffering is now 42 milliseconds (source: Desktop Audio)
09:55:48.661: 
10:12:00.657: User switched to scene 'spo_gold_announce'
10:12:01.391: User switched to scene 'spo_platinum announce'
10:12:03.558: User switched to scene 'welcome'
10:12:05.277: User switched to scene 'spo_platinum'
10:12:06.870: User switched to scene 'spo_gold'
10:12:07.941: User switched to scene 'spo_silver'
10:12:09.207: User switched to scene 'spo_platinum announce'
10:12:10.786: User switched to scene 'spo_gold_announce'
10:12:11.955: User switched to scene 'spo_silver_announce'
10:12:12.852: User switched to scene 'spo_gold_announce'
10:12:13.160: User switched to scene 'spo_platinum announce'
10:12:14.004: User switched to scene 'spo_gold_announce'
10:12:14.745: User switched to scene 'spo_silver_announce'
10:12:15.404: User switched to scene 'spo_gold_announce'
10:12:15.767: User switched to scene 'spo_platinum announce'
10:12:16.623: User switched to scene 'spo_gold_announce'
10:12:17.170: User switched to scene 'spo_silver_announce'
10:12:17.803: User switched to scene 'spo_gold_announce'
10:12:18.156: User switched to scene 'spo_platinum announce'
10:12:18.748: User switched to scene 'spo_gold_announce'
10:12:19.621: User switched to scene 'spo_silver_announce'
10:12:20.162: User switched to scene 'upcoming'
10:12:20.818: User switched to scene 'shoutouts-base'
10:12:21.390: User switched to scene 'sho-urbec'
10:12:23.210: User switched to scene 'shoutouts-base'
10:12:23.485: User switched to scene 'upcoming'
10:12:23.832: User switched to scene 'spo_silver_announce'
10:12:24.572: User switched to scene 'spo_gold_announce'
10:12:24.863: User switched to scene 'spo_platinum announce'
10:12:25.189: User switched to scene 'spo_silver'
10:12:25.518: User switched to scene 'spo_gold'
10:12:25.917: User switched to scene 'spo_platinum'
10:12:26.291: User switched to scene 'welcome'
10:12:26.703: User switched to scene 'lower-third-with-wallpaper'
10:12:27.196: User switched to scene 'lower-third'
10:12:27.677: User switched to scene 'wallpaper'
10:12:28.165: User switched to scene 'music'
10:12:29.436: User switched to scene 'wallpaper'
10:12:29.828: User switched to scene 'lower-third'
10:12:30.195: User switched to scene 'lower-third-with-wallpaper'
10:12:31.173: User switched to scene 'lower-third'
10:12:31.846: User switched to scene 'lower-third-with-wallpaper'
10:12:32.618: User switched to scene 'lower-third'
10:12:33.261: User switched to scene 'lower-third-with-wallpaper'
10:12:33.678: User switched to scene 'lower-third'
10:12:33.996: User switched to scene 'wallpaper'
10:12:34.491: User switched to scene 'lower-third'
10:12:34.927: User switched to scene 'lower-third-with-wallpaper'
10:12:36.002: User switched to scene 'lower-third'
10:12:36.327: User switched to scene 'wallpaper'
10:12:37.290: User switched to scene 'lower-third'
10:12:37.900: User switched to scene 'lower-third-with-wallpaper'
10:12:39.235: User switched to scene 'welcome'
10:12:40.466: User switched to scene 'spo_platinum'
10:12:41.389: User switched to scene 'spo_gold'
10:12:41.889: User switched to scene 'spo_silver'
10:12:41.936: User switched to scene 'spo_platinum announce'
10:12:41.962: User switched to scene 'spo_gold_announce'
10:12:41.988: User switched to scene 'spo_silver_announce'
10:12:42.017: User switched to scene 'upcoming'
10:12:42.036: User switched to scene 'shoutouts-base'
10:12:42.066: User switched to scene 'sho-urbec'
10:12:43.243: User switched to scene 'shoutouts-base'
10:12:43.485: User switched to scene 'upcoming'
10:12:43.740: User switched to scene 'spo_silver_announce'
10:12:43.987: User switched to scene 'spo_gold_announce'
10:12:44.198: User switched to scene 'spo_platinum announce'
10:12:44.414: User switched to scene 'spo_silver'
10:12:44.626: User switched to scene 'spo_gold'
10:12:44.905: User switched to scene 'spo_platinum'
10:12:45.381: User switched to scene 'spo_gold'
10:12:46.226: User switched to scene 'spo_platinum'
10:12:46.436: User switched to scene 'welcome'
11:57:54.541: User switched to scene 'spo_platinum'
11:57:55.147: User switched to scene 'spo_silver'
11:57:55.974: User switched to scene 'spo_platinum announce'
11:58:00.232: User switched to scene 'spo_gold_announce'
11:58:01.958: User switched to scene 'spo_silver_announce'
11:58:12.723: User switched to scene 'spo_platinum announce'
12:40:33.661: User switched to scene 'wallpaper'
12:40:34.612: User switched to scene 'lower-third'
12:40:35.206: User switched to scene 'lower-third-with-wallpaper'
12:40:35.676: User switched to scene 'welcome'
12:40:37.237: User switched to scene 'spo_platinum'
12:40:41.753: User switched to scene 'spo_gold'
12:40:42.993: User switched to scene 'spo_silver'
12:40:44.289: User switched to scene 'spo_platinum announce'
12:40:59.409: User switched to scene 'spo_gold_announce'
12:41:00.637: User switched to scene 'spo_silver_announce'
12:41:06.765: User switched to scene 'upcoming'
12:41:07.463: User switched to scene 'shoutouts-base'
12:41:08.158: User switched to scene 'sho-urbec'
12:41:17.444: User switched to scene 'shoutouts-base'
12:41:17.633: User switched to scene 'upcoming'
12:41:17.809: User switched to scene 'spo_silver_announce'
12:41:18.071: User switched to scene 'spo_gold_announce'
13:20:57.145: User switched to scene 'shoutouts-base'
13:20:57.805: User switched to scene 'upcoming'
13:20:58.621: User switched to scene 'spo_silver_announce'
13:20:59.548: User switched to scene 'spo_gold_announce'
13:21:00.009: User switched to scene 'spo_platinum announce'
13:21:00.461: User switched to scene 'spo_silver'
13:21:01.224: User switched to scene 'spo_gold'
13:21:01.487: User switched to scene 'spo_platinum'
13:33:40.105: User switched to scene 'music'
13:33:42.006: User switched to scene 'wallpaper'
13:33:42.340: User switched to scene 'lower-third'
13:33:42.697: User switched to scene 'lower-third-with-wallpaper'
13:33:43.200: User switched to scene 'welcome'
13:33:43.599: User switched to scene 'spo_platinum'
13:33:43.996: User switched to scene 'spo_gold'
13:33:44.419: User switched to scene 'spo_silver'
13:33:44.750: User switched to scene 'spo_platinum announce'
13:33:45.656: User switched to scene 'spo_gold_announce'
13:33:46.197: User switched to scene 'spo_silver_announce'
13:33:46.828: User switched to scene 'upcoming'
13:33:47.387: User switched to scene 'shoutouts-base'
13:33:47.897: User switched to scene 'sho-urbec'
13:33:49.051: User switched to scene 'shoutouts-base'
13:33:49.493: User switched to scene 'upcoming'
13:33:50.196: User switched to scene 'shoutouts-base'
13:33:51.290: User switched to scene 'upcoming'
13:33:51.810: User switched to scene 'spo_silver_announce'
13:50:11.720: User switched to scene 'music'
13:50:13.039: User switched to scene 'wallpaper'
13:50:13.489: User switched to scene 'lower-third'
13:50:13.875: User switched to scene 'lower-third-with-wallpaper'
13:50:14.301: User switched to scene 'welcome'
13:50:14.747: User switched to scene 'spo_platinum'
13:50:15.193: User switched to scene 'spo_gold'
13:50:15.671: User switched to scene 'spo_silver'
13:50:16.102: User switched to scene 'spo_platinum announce'
13:50:16.569: User switched to scene 'spo_gold_announce'
13:50:17.074: User switched to scene 'spo_silver_announce'
13:50:17.575: User switched to scene 'upcoming'
13:50:18.083: User switched to scene 'shoutouts-base'
13:50:18.554: User switched to scene 'sho-urbec'
13:50:19.823: User switched to scene 'shoutouts-base'
13:50:20.726: User switched to scene 'upcoming'
13:50:21.273: User switched to scene 'spo_silver_announce'
13:50:21.835: User switched to scene 'spo_gold_announce'
13:50:22.370: User switched to scene 'spo_platinum announce'
13:50:22.857: User switched to scene 'spo_silver'
13:50:23.754: User switched to scene 'spo_platinum announce'
13:51:55.081: User switched to scene 'spo_gold_announce'
13:51:56.155: User switched to scene 'spo_silver'
13:51:57.256: User switched to scene 'spo_platinum announce'
13:52:10.230: User switched to scene 'spo_silver'
13:52:10.553: User switched to scene 'spo_platinum announce'
13:52:15.410: User switched to scene 'spo_silver'
13:52:16.258: User switched to scene 'spo_gold_announce'
13:52:39.734: User switched to scene 'spo_platinum announce'
13:52:40.336: User switched to scene 'spo_silver'
13:52:41.063: User switched to scene 'spo_silver_announce'
13:55:35.613: User switched to scene 'lower-third'
13:55:36.729: User switched to scene 'lower-third-with-wallpaper'
13:55:37.368: User switched to scene 'lower-third'
13:56:01.108: User added source 'Banner-text-test' (linuxbrowser-source) to scene 'lower-third'
13:57:17.259: User switched to scene 'wallpaper'
13:57:17.590: User switched to scene 'lower-third'
13:58:01.687: User switched to scene 'wallpaper'
13:58:02.191: User switched to scene 'lower-third'
13:58:24.008: User switched to scene 'wallpaper'
13:58:24.447: User switched to scene 'lower-third'
13:59:03.219: User switched to scene 'wallpaper'
13:59:03.655: User switched to scene 'lower-third'
13:59:09.155: User switched to scene 'wallpaper'
13:59:09.474: User switched to scene 'lower-third'
14:00:18.459: User switched to scene 'wallpaper'
14:00:18.934: User switched to scene 'lower-third'
14:00:27.015: User switched to scene 'wallpaper'
14:00:27.560: User switched to scene 'lower-third-with-wallpaper'
14:00:28.080: User switched to scene 'lower-third'
14:01:57.294: User switched to scene 'wallpaper'
14:01:57.647: User switched to scene 'lower-third'
14:02:12.206: User switched to scene 'wallpaper'
14:02:12.946: User switched to scene 'lower-third'
14:02:59.214: User Removed source 'Group' (group) from scene 'lower-third'
14:02:59.256: User Removed source 'Gray' (color_source_v3) from scene '(null)'
14:02:59.256: User Removed source 'Bar text' (text_ft2_source_v2) from scene '(null)'
14:02:59.256: User Removed source 'dc24_logobig' (image_source) from scene '(null)'
14:02:59.256: User Removed source 'TopBarText' (text_ft2_source_v2) from scene '(null)'
14:02:59.256: User Removed source 'the-time' (time_source) from scene '(null)'
14:03:31.229: User Removed source 'Bar text' (text_ft2_source_v2) from scene 'lower-third'
14:03:57.463: User switched to scene 'music'
14:03:58.067: User switched to scene 'lower-third'
14:04:26.261: User switched to scene 'music'
14:04:27.020: User switched to scene 'lower-third'
14:04:55.638: User switched to scene 'upcoming'
14:04:56.793: User switched to scene 'spo_silver_announce'
14:04:57.385: User switched to scene 'upcoming'
14:04:57.950: User switched to scene 'spo_silver_announce'
14:04:58.256: User switched to scene 'spo_gold_announce'
14:04:58.431: User switched to scene 'spo_platinum announce'
14:04:58.619: User switched to scene 'spo_silver'
14:04:58.795: User switched to scene 'spo_gold'
14:04:58.974: User switched to scene 'spo_platinum'
14:04:59.165: User switched to scene 'welcome'
14:04:59.380: User switched to scene 'lower-third-with-wallpaper'
14:04:59.595: User switched to scene 'lower-third'
14:05:00.010: User switched to scene 'wallpaper'
14:05:00.366: User switched to scene 'lower-third'
14:05:00.583: User switched to scene 'lower-third-with-wallpaper'
14:05:01.033: User switched to scene 'lower-third'
14:05:01.393: User switched to scene 'wallpaper'
14:05:01.663: User switched to scene 'music'
14:05:02.616: User switched to scene 'wallpaper'
14:05:03.642: User switched to scene 'lower-third'
14:05:06.263: User switched to scene 'lower-third-with-wallpaper'
14:05:19.719: User switched to scene 'lower-third'
14:05:20.598: User switched to scene 'lower-third-with-wallpaper'
14:05:21.828: User switched to scene 'wallpaper'
14:05:22.928: User switched to scene 'lower-third'
14:05:32.098: User switched to scene 'wallpaper'
14:05:32.596: User switched to scene 'lower-third'
14:06:02.608: User switched to scene 'wallpaper'
14:06:03.152: User switched to scene 'lower-third-with-wallpaper'
14:06:14.930: User switched to scene 'lower-third'
14:06:15.784: User switched to scene 'lower-third-with-wallpaper'
14:06:16.759: User switched to scene 'wallpaper'
14:06:17.611: User switched to scene 'lower-third'
14:06:53.976: User switched to scene 'shoutouts-base'
14:06:55.664: User switched to scene 'spo_silver_announce'
14:07:04.829: User switched to scene 'lower-third'
14:07:21.621: X Error: BadWindow (invalid Window parameter), Major opcode: 20, Minor opcode: 0, Serial: 1488032
14:07:21.622: X Error: BadWindow (invalid Window parameter), Major opcode: 20, Minor opcode: 0, Serial: 1488033
14:07:21.624: X Error: BadWindow (invalid Window parameter), Major opcode: 20, Minor opcode: 0, Serial: 1488037
14:07:21.625: X Error: BadWindow (invalid Window parameter), Major opcode: 20, Minor opcode: 0, Serial: 1488056
14:07:21.625: X Error: BadWindow (invalid Window parameter), Major opcode: 20, Minor opcode: 0, Serial: 1488057
14:07:30.701: User switched to scene 'spo_gold_announce'
14:07:39.913: User switched to scene 'lower-third'
14:08:10.176: User switched to scene 'shoutouts-base'
14:08:10.967: User switched to scene 'upcoming'
14:08:29.272: User switched to scene 'lower-third'
14:08:34.790: User switched to scene 'lower-third-with-wallpaper'
14:09:10.236: User switched to scene 'wallpaper'
14:09:11.764: User switched to scene 'lower-third-with-wallpaper'
14:09:29.430: User switched to scene 'wallpaper'
14:09:30.283: User switched to scene 'lower-third-with-wallpaper'
14:10:35.094: User switched to scene 'wallpaper'
14:10:36.664: User switched to scene 'lower-third'
14:10:39.870: User switched to scene 'lower-third-with-wallpaper'
14:10:52.319: User switched to scene 'lower-third'
14:11:07.460: User switched to scene 'lower-third-with-wallpaper'
14:11:09.848: User switched to scene 'lower-third'
14:11:13.659: User switched to scene 'lower-third-with-wallpaper'
14:11:36.836: User switched to scene 'wallpaper'
14:11:37.496: User switched to scene 'lower-third-with-wallpaper'
14:11:49.520: User switched to scene 'lower-third'
14:11:54.840: User switched to scene 'wallpaper'
14:11:56.330: User switched to scene 'lower-third'
14:11:57.091: User switched to scene 'lower-third-with-wallpaper'
14:12:39.839: ==== Shutting down ==================================================
14:12:39.862: [adv-ss] stopped
14:12:39.862: [adv-ss] trying to reconnect to  in 10 seconds.
14:12:39.862: [adv-ss] reset transition behaviour to adjust active transition type
14:12:39.863: [adv-ss] started
14:12:39.864: pulse-input: Stopped recording from 'alsa_output.pci-0000_00_1f.3.analog-stereo.monitor'
14:12:39.864: pulse-input: Got 699569 packets with 839482800 frames
14:12:39.865: pulse-input: Stopped recording from 'alsa_input.usb-046d_C922_Pro_Stream_Webcam_4B3DD6BF-02.analog-stereo'
14:12:39.865: pulse-input: Got 699548 packets with 559638400 frames
14:12:39.926: All scene data cleared
14:12:39.926: ------------------------------------------------
14:12:40.033: Tried to call obs_frontend_remove_save_callback with no callbacks!
14:12:40.033: Tried to call obs_frontend_remove_event_callback with no callbacks!
14:12:40.033: Tried to call obs_frontend_remove_event_callback with no callbacks!
14:12:40.033: Tried to call obs_frontend_remove_save_callback with no callbacks!
14:12:40.035: [obs-websocket] [obs_module_unload] Shutting down...
14:12:40.035: Tried to call obs_frontend_remove_event_callback with no callbacks!
14:12:40.035: [obs-websocket] [obs_module_unload] Finished shutting down.
14:12:40.036: [adv-ss] stopped
14:12:40.036: [adv-ss] trying to reconnect to  in 10 seconds.
14:12:40.036: [adv-ss] trying to reconnect to  in 10 seconds.
14:12:40.041: [Scripting] Total detached callbacks: 0
14:12:40.042: Freeing OBS context data
14:12:40.088: == Profiler Results =============================
14:12:40.088: run_program_init: 1744.09 ms
14:12:40.088:  ┣OBSApp::AppInit: 5.85 ms
14:12:40.088:  ┃ ┗OBSApp::InitLocale: 0.893 ms
14:12:40.088:  ┗OBSApp::OBSInit: 1622.46 ms
14:12:40.088:    ┣obs_startup: 1.803 ms
14:12:40.088:    ┗OBSBasic::OBSInit: 1556.94 ms
14:12:40.088:      ┣OBSBasic::InitBasicConfig: 0.137 ms
14:12:40.088:      ┣OBSBasic::ResetAudio: 0.266 ms
14:12:40.088:      ┣OBSBasic::ResetVideo: 152.752 ms
14:12:40.088:      ┃ ┗obs_init_graphics: 148.307 ms
14:12:40.088:      ┃   ┗shader compilation: 42.113 ms
14:12:40.088:      ┣OBSBasic::InitOBSCallbacks: 0.007 ms
14:12:40.088:      ┣OBSBasic::InitHotkeys: 0.025 ms
14:12:40.088:      ┣obs_load_all_modules2: 619.237 ms
14:12:40.088:      ┃ ┣obs_init_module(3d-effect.so): 0.017 ms
14:12:40.088:      ┃ ┣obs_init_module(decklink-captions.so): 0 ms
14:12:40.088:      ┃ ┣obs_init_module(decklink-output-ui.so): 0 ms
14:12:40.088:      ┃ ┣obs_init_module(decklink.so): 0.232 ms
14:12:40.088:      ┃ ┣obs_init_module(frontend-tools.so): 33.796 ms
14:12:40.088:      ┃ ┣obs_init_module(gradient-source.so): 0.02 ms
14:12:40.088:      ┃ ┣obs_init_module(image-source.so): 0.012 ms
14:12:40.088:      ┃ ┣obs_init_module(libadvanced-scene-switcher.so): 47.603 ms
14:12:40.088:      ┃ ┣obs_init_module(linux-alsa.so): 0.006 ms
14:12:40.088:      ┃ ┣obs_init_module(linux-capture.so): 0.828 ms
14:12:40.088:      ┃ ┣obs_init_module(linux-jack.so): 0.005 ms
14:12:40.088:      ┃ ┣obs_init_module(linux-pipewire.so): 20.023 ms
14:12:40.088:      ┃ ┣obs_init_module(linux-pulseaudio.so): 0.015 ms
14:12:40.088:      ┃ ┣obs_init_module(linux-v4l2.so): 2.922 ms
14:12:40.088:      ┃ ┣obs_init_module(move-transition.so): 0.026 ms
14:12:40.088:      ┃ ┣obs_init_module(obs-ffmpeg.so): 32.442 ms
14:12:40.088:      ┃ ┃ ┗nvenc_check: 0.713 ms
14:12:40.088:      ┃ ┣obs_init_module(obs-filters.so): 0.058 ms
14:12:40.088:      ┃ ┣obs_init_module(obs-outputs.so): 0.005 ms
14:12:40.088:      ┃ ┣obs_init_module(obs-transitions.so): 0.034 ms
14:12:40.088:      ┃ ┣obs_init_module(obs-websocket.so): 6.902 ms
14:12:40.088:      ┃ ┣obs_init_module(obs-x264.so): 0.004 ms
14:12:40.088:      ┃ ┣obs_init_module(rtmp-services.so): 0.802 ms
14:12:40.088:      ┃ ┣obs_init_module(scene-as-transition.so): 0.057 ms
14:12:40.088:      ┃ ┣obs_init_module(scene-collection-manager.so): 0.107 ms
14:12:40.088:      ┃ ┣obs_init_module(text-freetype2.so): 0.016 ms
14:12:40.088:      ┃ ┣obs_init_module(time-source.so): 0.009 ms
14:12:40.088:      ┃ ┣obs_init_module(transition-table.so): 0.088 ms
14:12:40.088:      ┃ ┣obs_init_module(vintage-filter.so): 0.007 ms
14:12:40.088:      ┃ ┣obs_init_module(vlc-video.so): 2.669 ms
14:12:40.088:      ┃ ┣obs_init_module(markdown.so): 0.027 ms
14:12:40.088:      ┃ ┗obs_init_module(libobs-linuxbrowser.so): 0.008 ms
14:12:40.088:      ┣OBSBasic::InitService: 1.466 ms
14:12:40.088:      ┣OBSBasic::ResetOutputs: 0.254 ms
14:12:40.088:      ┣OBSBasic::CreateHotkeys: 0.03 ms
14:12:40.088:      ┣OBSBasic::InitPrimitives: 0.546 ms
14:12:40.088:      ┗OBSBasic::Load: 728.473 ms
14:12:40.088: obs_hotkey_thread(25 ms): min=0.064 ms, median=0.784 ms, max=50.139 ms, 99th percentile=2.58 ms, 99.9975% below 25 ms
14:12:40.088: audio_thread(Audio): min=0.01 ms, median=0.093 ms, max=19.859 ms, 99th percentile=2.822 ms
14:12:40.088: obs_graphics_thread(33.3333 ms): min=0.148 ms, median=4.393 ms, max=808.512 ms, 99th percentile=8.956 ms, 99.9985% below 33.333 ms
14:12:40.088:  ┣tick_sources: min=0.001 ms, median=0.426 ms, max=778.352 ms, 99th percentile=1.258 ms
14:12:40.088:  ┣output_frame: min=0.116 ms, median=2.025 ms, max=25.189 ms, 99th percentile=5.55 ms
14:12:40.088:  ┃ ┗gs_context(video->graphics): min=0.115 ms, median=2.022 ms, max=25.178 ms, 99th percentile=5.545 ms
14:12:40.088:  ┃   ┣render_video: min=0.018 ms, median=1.302 ms, max=23.51 ms, 99th percentile=4.617 ms
14:12:40.089:  ┃   ┃ ┗render_main_texture: min=0.014 ms, median=1.293 ms, max=23.499 ms, 99th percentile=4.607 ms
14:12:40.089:  ┃   ┗gs_flush: min=0.002 ms, median=0.01 ms, max=11.634 ms, 99th percentile=0.086 ms
14:12:40.089:  ┗render_displays: min=0.004 ms, median=1.703 ms, max=35.841 ms, 99th percentile=4.725 ms
14:12:40.089: =================================================
14:12:40.089: == Profiler Time Between Calls ==================
14:12:40.089: obs_hotkey_thread(25 ms): min=25.085 ms, median=25.909 ms, max=75.571 ms, 14.0526% within ±2% of 25 ms (0% lower, 85.9474% higher)
14:12:40.089: obs_graphics_thread(33.3333 ms): min=24.811 ms, median=33.333 ms, max=808.52 ms, 99.206% within ±2% of 33.333 ms (0.397958% lower, 0.396052% higher)
14:12:40.089: =================================================
14:12:40.173: Number of memory leaks: 2
