14:13:20.144: Using EGL/X11
14:13:20.144: CPU Name: Intel(R) Core(TM) i5-7400 CPU @ 3.00GHz
14:13:20.144: CPU Speed: 3300.000MHz
14:13:20.145: Physical Cores: 4, Logical Cores: 4
14:13:20.145: Physical Memory: 32060MB Total, 15388MB Free
14:13:20.145: Kernel Version: Linux 6.9.7-amd64
14:13:20.145: Distribution: "Debian GNU/Linux" Unknown
14:13:20.145: Desktop Environment: GNOME (gnome-xorg)
14:13:20.145: Session Type: x11
14:13:20.145: Window System: X11.0, Vendor: The X.Org Foundation, Version: 1.21.1
14:13:20.150: Qt Version: 6.6.2 (runtime), 6.6.2 (compiled)
14:13:20.150: Portable mode: false
14:13:20.204: OBS 30.1.2.1-1+b2 (linux)
14:13:20.204: ---------------------------------
14:13:20.230: ---------------------------------
14:13:20.230: audio settings reset:
14:13:20.230: 	samples per sec: 48000
14:13:20.230: 	speakers:        2
14:13:20.230: 	max buffering:   960 milliseconds
14:13:20.230: 	buffering type:  dynamically increasing
14:13:20.231: ---------------------------------
14:13:20.231: Initializing OpenGL...
14:13:20.332: Loading up OpenGL on adapter AMD AMD Radeon RX 6800 (radeonsi, navi21, LLVM 17.0.6, DRM 3.57, 6.9.7-amd64)
14:13:20.332: OpenGL loaded successfully, version 4.6 (Core Profile) Mesa 24.1.3-2, shading language 4.60
14:13:20.375: ---------------------------------
14:13:20.375: video settings reset:
14:13:20.375: 	base resolution:   1920x1080
14:13:20.375: 	output resolution: 1920x1080
14:13:20.375: 	downscale filter:  Bicubic
14:13:20.375: 	fps:               30/1
14:13:20.375: 	format:            NV12
14:13:20.375: 	YUV mode:          Rec. 709/Partial
14:13:20.377: NV12 texture support not available
14:13:20.377: P010 texture support not available
14:13:20.380: Audio monitoring device:
14:13:20.380: 	name: Default
14:13:20.380: 	id: default
14:13:20.380: ---------------------------------
14:13:20.391: Failed to load 'en-GB' text for module: '3d-effect.so'
14:13:20.391: [3D Effect] loaded version 0.1.0
14:13:20.424: Failed to load 'en-US' text for module: 'decklink-captions.so'
14:13:20.436: Failed to load 'en-US' text for module: 'decklink-output-ui.so'
14:13:20.446: A DeckLink iterator could not be created.  The DeckLink drivers may not be installed
14:13:20.446: Failed to initialize module 'decklink.so'
14:13:20.511: Failed to load 'en-GB' text for module: 'gradient-source.so'
14:13:20.511: [Gradient Source] loaded version 0.3.2
14:13:20.531: Failed to load 'en-GB' text for module: 'libadvanced-scene-switcher.so'
14:13:20.531: [adv-ss] version: GIT-NOTFOUND
14:13:20.531: [adv-ss] version: GITDIR-NOTFOUND
14:13:20.533: [adv-ss] attempting to load "/usr/lib/x86_64-linux-gnu/obs-plugins/adv-ss-plugins/advanced-scene-switcher-base.so"
14:13:20.537: [adv-ss] successfully loaded "/usr/lib/x86_64-linux-gnu/obs-plugins/adv-ss-plugins/advanced-scene-switcher-base.so"
14:13:20.537: [adv-ss] attempting to load "/usr/lib/x86_64-linux-gnu/obs-plugins/adv-ss-plugins/advanced-scene-switcher-opencv.so"
14:13:20.570: [adv-ss] successfully loaded "/usr/lib/x86_64-linux-gnu/obs-plugins/adv-ss-plugins/advanced-scene-switcher-opencv.so"
14:13:20.680: [pipewire] Available captures:
14:13:20.680: [pipewire]     - Desktop capture
14:13:20.680: [pipewire]     - Window capture
14:13:20.705: v4l2loopback not installed, virtual camera disabled
14:13:20.717: Failed to load 'en-GB' text for module: 'move-transition.so'
14:13:20.717: [Move Transition] loaded version 3.0.1
14:13:20.835: VAAPI: API version 1.22
14:13:20.836: FFmpeg VAAPI H264 encoding supported
14:13:20.845: FFmpeg VAAPI AV1 encoding not supported
14:13:20.854: FFmpeg VAAPI HEVC encoding supported
14:13:20.903: [obs-websocket] [obs_module_load] you can haz websockets (Version: 5.4.2 | RPC Version: 1)
14:13:20.903: [obs-websocket] [obs_module_load] Qt version (compile-time): 6.6.2 | Qt version (run-time): 6.6.2
14:13:20.903: [obs-websocket] [obs_module_load] Linked ASIO Version: 102801
14:13:20.910: [obs-websocket] [obs_module_load] Module loaded.
14:13:20.943: [Scene As Transition] loaded version 1.1.1
14:13:20.955: Failed to load 'en-GB' text for module: 'scene-collection-manager.so'
14:13:20.955: [Scene Collection Manager] loaded version 0.1.1
14:13:20.977: Failed to load 'en-GB' text for module: 'time-source.so'
14:13:20.988: Failed to load 'en-GB' text for module: 'transition-table.so'
14:13:20.989: [Transition Table] loaded version 0.2.7
14:13:20.999: Failed to load 'en-GB' text for module: 'vintage-filter.so'
14:13:21.012: [vlc-video]: VLC 3.0.21 Vetinari found, VLC video source enabled
14:13:21.023: Failed to load 'en-GB' text for module: 'markdown.so'
14:13:21.023: [markdown] loaded version 0.2.5
14:13:21.033: Failed to load 'en-GB' text for module: 'libobs-linuxbrowser.so'
14:13:21.034: ---------------------------------
14:13:21.034:   Loaded Modules:
14:13:21.034:     libobs-linuxbrowser.so
14:13:21.034:     markdown.so
14:13:21.034:     vlc-video.so
14:13:21.034:     vintage-filter.so
14:13:21.034:     transition-table.so
14:13:21.034:     time-source.so
14:13:21.034:     text-freetype2.so
14:13:21.034:     scene-collection-manager.so
14:13:21.034:     scene-as-transition.so
14:13:21.034:     rtmp-services.so
14:13:21.034:     obs-x264.so
14:13:21.034:     obs-websocket.so
14:13:21.034:     obs-transitions.so
14:13:21.034:     obs-outputs.so
14:13:21.034:     obs-filters.so
14:13:21.034:     obs-ffmpeg.so
14:13:21.034:     move-transition.so
14:13:21.034:     linux-v4l2.so
14:13:21.034:     linux-pulseaudio.so
14:13:21.034:     linux-pipewire.so
14:13:21.034:     linux-jack.so
14:13:21.034:     linux-capture.so
14:13:21.034:     linux-alsa.so
14:13:21.034:     libadvanced-scene-switcher.so
14:13:21.034:     image-source.so
14:13:21.034:     gradient-source.so
14:13:21.034:     frontend-tools.so
14:13:21.034:     decklink-output-ui.so
14:13:21.034:     decklink-captions.so
14:13:21.034:     3d-effect.so
14:13:21.034: ---------------------------------
14:13:21.034: ==== Startup complete ===============================================
14:13:21.084: All scene data cleared
14:13:21.084: ------------------------------------------------
14:13:21.089: pulse-input: Server name: 'PulseAudio (on PipeWire 1.2.0) 15.0.0'
14:13:21.089: pulse-input: Audio format: s32le, 48000 Hz, 2 channels
14:13:21.089: pulse-input: Started recording from 'alsa_output.pci-0000_03_00.1.hdmi-stereo-extra2.monitor' (default)
14:13:21.089: [Loaded global audio device]: 'Desktop Audio'
14:13:21.089: pulse-input: Server name: 'PulseAudio (on PipeWire 1.2.0) 15.0.0'
14:13:21.090: pulse-input: Audio format: s16le, 32000 Hz, 2 channels
14:13:21.090: pulse-input: Started recording from 'alsa_input.usb-046d_C922_Pro_Stream_Webcam_4B3DD6BF-02.analog-stereo' (default)
14:13:21.090: [Loaded global audio device]: 'Mic/Aux'
14:13:21.608: [Media Source 'sho-urbec-clip']: settings:
14:13:21.608: 	input:                   /home/videoteam/loopy/shoutouts/bottle-harvest-rescaled.mp4
14:13:21.608: 	input_format:            (null)
14:13:21.608: 	speed:                   100
14:13:21.608: 	is_looping:              yes
14:13:21.608: 	is_linear_alpha:         no
14:13:21.608: 	is_hw_decoding:          yes
14:13:21.608: 	is_clear_on_media_end:   no
14:13:21.608: 	restart_on_activate:     yes
14:13:21.608: 	close_when_inactive:     no
14:13:21.608: 	full_decode:             no
14:13:21.608: 	ffmpeg_options:          
14:13:21.694: adding 21 milliseconds of audio buffering, total audio buffering is now 21 milliseconds (source: Desktop Audio)
14:13:21.694: 
14:13:21.722: Switched to scene 'lower-third-with-wallpaper'
14:13:21.723: [adv-ss] trying to reconnect to  in 10 seconds.
14:13:21.726: [adv-ss] started
14:13:21.727: ------------------------------------------------
14:13:21.727: Loaded scenes:
14:13:21.727: - scene 'music':
14:13:21.727: - scene 'wallpaper':
14:13:21.727:     - source: 'VLC Video Source' (vlc_source)
14:13:21.727:     - source: 'emerald_background' (image_source)
14:13:21.728: - scene 'lower-third':
14:13:21.728:     - source: 'Gray' (color_source_v3)
14:13:21.728:         - filter: 'Colour Key' (color_key_filter_v2)
14:13:21.728:     - source: 'dc24_logobig' (image_source)
14:13:21.728:     - source: 'TopBarText' (text_ft2_source_v2)
14:13:21.729:     - source: 'the-time' (time_source)
14:13:21.729:     - source: 'Banner-text-test' (linuxbrowser-source)
14:13:21.729: - scene 'lower-third-with-wallpaper':
14:13:21.729:     - source: 'wallpaper' (scene)
14:13:21.729:     - source: 'lower-third' (scene)
14:13:21.729: - scene 'welcome':
14:13:21.729:     - source: 'wallpaper' (scene)
14:13:21.729:     - source: 'dc24_logobig 2' (image_source)
14:13:21.729:     - source: 'VLC Video Source' (vlc_source)
14:13:21.731: - scene 'spo_platinum':
14:13:21.731:     - source: 'lower-third-with-wallpaper' (scene)
14:13:21.731:     - source: 'White' (color_source_v3)
14:13:21.732:     - source: 'Platinum_gradient' (gradient_source)
14:13:21.732:     - source: 'spo_plat_thanks' (text_ft2_source_v2)
14:13:21.732:     - source: 'sponsors_platinum_logos' (image_source)
14:13:21.732:     - source: 'loopy_sponsors_text' (text_ft2_source_v2)
14:13:21.732: - scene 'spo_gold':
14:13:21.732:     - source: 'lower-third-with-wallpaper' (scene)
14:13:21.732:     - source: 'White' (color_source_v3)
14:13:21.732:     - source: 'Platinum_gradient 2' (gradient_source)
14:13:21.732:     - source: 'spo_gold_thanks 2' (text_ft2_source_v2)
14:13:21.732:     - source: 'sponsors_gold' (image_source)
14:13:21.732:     - source: 'loopy_sponsors_text' (text_ft2_source_v2)
14:13:21.732: - scene 'spo_silver':
14:13:21.732:     - source: 'lower-third-with-wallpaper' (scene)
14:13:21.732:     - source: 'Group 2' (group)
14:13:21.732:         - source: 'White' (color_source_v3)
14:13:21.732:         - source: 'gradient_silver' (gradient_source)
14:13:21.732:         - source: 'spo_silver_thanks' (text_ft2_source_v2)
14:13:21.732:         - source: 'sponsors_silver' (image_source)
14:13:21.735:     - source: 'loopy_sponsors_text' (text_ft2_source_v2)
14:13:21.735: - scene 'spo_platinum announce':
14:13:21.735:     - source: 'lower-third-with-wallpaper' (scene)
14:13:21.735:     - source: 'White' (color_source_v3)
14:13:21.735:     - source: 'Platinum_gradient' (gradient_source)
14:13:21.735:     - source: 'spo_plat_thanks' (text_ft2_source_v2)
14:13:21.735:     - source: 'sponsors_platinum_logos' (image_source)
14:13:21.735:     - source: 'announcements-text' (text_ft2_source_v2)
14:13:21.735:     - source: 'loopy_sponsors_text' (text_ft2_source_v2)
14:13:21.735:     - source: 'announcements_html' (linuxbrowser-source)
14:13:21.735: - scene 'spo_gold_announce':
14:13:21.735:     - source: 'lower-third-with-wallpaper' (scene)
14:13:21.735:     - source: 'White' (color_source_v3)
14:13:21.735:     - source: 'Platinum_gradient 2' (gradient_source)
14:13:21.735:     - source: 'spo_gold_thanks 2' (text_ft2_source_v2)
14:13:21.735:     - source: 'loopy_sponsors_text' (text_ft2_source_v2)
14:13:21.735:     - source: 'announcements-text' (text_ft2_source_v2)
14:13:21.735:     - source: 'spo_gold_side_announce' (image_source)
14:13:21.736:     - source: 'announcements_html' (linuxbrowser-source)
14:13:21.736: - scene 'spo_silver_announce':
14:13:21.736:     - source: 'lower-third-with-wallpaper' (scene)
14:13:21.736:     - source: 'Group 3' (group)
14:13:21.736:         - source: 'White' (color_source_v3)
14:13:21.736:         - source: 'gradient_silver' (gradient_source)
14:13:21.736:         - source: 'spo_silver_thanks' (text_ft2_source_v2)
14:13:21.736:         - source: 'sponsors_silver_side' (image_source)
14:13:21.736:         - source: 'announcements-text' (text_ft2_source_v2)
14:13:21.736:     - source: 'announcements_html' (linuxbrowser-source)
14:13:21.736:     - source: 'loopy_sponsors_text' (text_ft2_source_v2)
14:13:21.736: - scene 'upcoming':
14:13:21.736:     - source: 'lower-third-with-wallpaper' (scene)
14:13:21.736:     - source: 'loopy_schedule-text' (text_ft2_source_v2)
14:13:21.736: - scene 'shoutouts-base':
14:13:21.736:     - source: 'loopy_shout_out-text' (text_ft2_source_v2)
14:13:21.736: - scene 'sho-urbec':
14:13:21.736:     - source: 'wallpaper' (scene)
14:13:21.736:     - source: 'sho-urbec-clip' (ffmpeg_source)
14:13:21.736:     - source: 'shoutouts-base' (scene)
14:13:21.736:     - source: 'lower-third' (scene)
14:13:21.736: ------------------------------------------------
14:13:40.732: User switched to scene 'welcome'
14:13:42.145: User switched to scene 'spo_platinum announce'
14:13:46.580: User switched to scene 'lower-third-with-wallpaper'
14:14:08.685: User switched to scene 'lower-third'
14:14:09.385: User switched to scene 'lower-third-with-wallpaper'
14:14:10.144: User switched to scene 'wallpaper'
14:14:10.930: User switched to scene 'lower-third'
14:14:13.582: User switched to scene 'lower-third-with-wallpaper'
14:14:20.471: User switched to scene 'lower-third'
14:14:41.158: User switched to scene 'lower-third-with-wallpaper'
14:14:43.640: User switched to scene 'lower-third'
14:15:11.536: User switched to scene 'lower-third-with-wallpaper'
14:15:20.250: User switched to scene 'lower-third'
14:16:19.118: X Error: BadWindow (invalid Window parameter), Major opcode: 20, Minor opcode: 0, Serial: 9264
14:16:19.118: X Error: BadWindow (invalid Window parameter), Major opcode: 20, Minor opcode: 0, Serial: 9265
14:16:19.118: X Error: BadWindow (invalid Window parameter), Major opcode: 20, Minor opcode: 0, Serial: 9269
14:16:19.119: X Error: BadWindow (invalid Window parameter), Major opcode: 20, Minor opcode: 0, Serial: 9277
14:16:19.119: X Error: BadWindow (invalid Window parameter), Major opcode: 20, Minor opcode: 0, Serial: 9278
14:16:37.681: User switched to scene 'lower-third-with-wallpaper'
14:16:51.820: User switched to scene 'lower-third'
14:16:59.115: User switched to scene 'lower-third-with-wallpaper'
14:17:06.281: User switched to scene 'lower-third'
14:17:12.598: User switched to scene 'lower-third-with-wallpaper'
14:17:25.820: User switched to scene 'upcoming'
14:17:27.020: User switched to scene 'spo_silver_announce'
14:18:19.166: User switched to scene 'spo_gold_announce'
14:18:22.477: User switched to scene 'spo_silver_announce'
14:19:33.001: X Error: BadWindow (invalid Window parameter), Major opcode: 20, Minor opcode: 0, Serial: 19285
14:19:33.005: X Error: BadWindow (invalid Window parameter), Major opcode: 20, Minor opcode: 0, Serial: 19286
14:19:33.006: X Error: BadWindow (invalid Window parameter), Major opcode: 20, Minor opcode: 0, Serial: 19290
14:19:33.007: X Error: BadWindow (invalid Window parameter), Major opcode: 20, Minor opcode: 0, Serial: 19300
14:19:33.007: X Error: BadWindow (invalid Window parameter), Major opcode: 20, Minor opcode: 0, Serial: 19301
14:19:36.338: User switched to scene 'lower-third'
14:19:42.025: X Error: BadWindow (invalid Window parameter), Major opcode: 20, Minor opcode: 0, Serial: 19793
14:19:42.027: X Error: BadWindow (invalid Window parameter), Major opcode: 20, Minor opcode: 0, Serial: 19794
14:19:46.228: User switched to scene 'spo_platinum announce'
14:19:47.086: User switched to scene 'spo_gold_announce'
14:19:47.605: User switched to scene 'spo_silver_announce'
14:20:30.255: User switched to scene 'lower-third'
14:20:32.602: User switched to scene 'lower-third-with-wallpaper'
14:20:32.800: User switched to scene 'welcome'
14:20:33.437: User switched to scene 'lower-third-with-wallpaper'
14:20:33.602: User switched to scene 'lower-third'
14:20:38.466: User switched to scene 'spo_gold_announce'
14:20:41.077: User switched to scene 'spo_silver_announce'
14:21:42.858: User switched to scene 'lower-third'
14:21:50.096: User switched to scene 'spo_platinum announce'
14:21:51.037: User switched to scene 'spo_gold_announce'
14:21:52.493: User switched to scene 'upcoming'
14:21:54.022: User switched to scene 'spo_silver_announce'
14:22:16.122: User switched to scene 'lower-third'
14:22:28.906: User switched to scene 'spo_silver_announce'
14:22:39.612: adding 64 milliseconds of audio buffering, total audio buffering is now 85 milliseconds (source: Mic/Aux)
14:22:39.612: 
14:22:43.209: User switched to scene 'spo_gold_announce'
14:22:49.137: User Removed source 'loopy_sponsors_text' (text_ft2_source_v2) from scene 'spo_gold_announce'
14:22:49.521: User added source 'loopy_sponsors_text' (text_ft2_source_v2) to scene 'spo_gold_announce'
14:22:58.836: User switched to scene 'spo_silver'
14:23:03.481: User Removed source 'loopy_sponsors_text' (text_ft2_source_v2) from scene 'spo_silver'
14:23:03.874: User added source 'loopy_sponsors_text' (text_ft2_source_v2) to scene 'spo_silver'
14:23:10.595: User switched to scene 'spo_silver_announce'
14:23:20.897: User switched to scene 'lower-third'
14:23:29.326: User switched to scene 'lower-third-with-wallpaper'
14:23:56.465: User switched to scene 'welcome'
14:23:57.060: User switched to scene 'spo_platinum'
14:23:58.360: User switched to scene 'welcome'
14:23:58.580: User switched to scene 'lower-third-with-wallpaper'
14:23:59.307: User switched to scene 'welcome'
14:23:59.921: User switched to scene 'lower-third-with-wallpaper'
14:24:02.210: User switched to scene 'welcome'
14:24:04.436: User switched to scene 'spo_platinum'
14:24:20.408: User switched to scene 'spo_gold'
14:24:22.041: User switched to scene 'spo_silver'
14:24:23.471: User switched to scene 'spo_platinum announce'
14:24:24.306: User switched to scene 'spo_silver'
14:24:25.108: User switched to scene 'spo_platinum announce'
14:24:26.464: User switched to scene 'spo_gold_announce'
14:24:27.295: User switched to scene 'spo_silver_announce'
14:24:27.662: User switched to scene 'upcoming'
14:24:28.267: User switched to scene 'shoutouts-base'
14:24:28.958: User switched to scene 'upcoming'
14:24:29.340: User switched to scene 'spo_silver_announce'
14:24:30.151: User switched to scene 'spo_gold_announce'
14:24:30.673: User switched to scene 'spo_platinum announce'
14:24:42.529: User Removed source 'loopy_sponsors_text' (text_ft2_source_v2) from scene 'spo_platinum announce'
14:24:43.105: User added source 'loopy_sponsors_text' (text_ft2_source_v2) to scene 'spo_platinum announce'
14:24:48.842: User switched to scene 'spo_platinum'
14:24:49.577: User switched to scene 'welcome'
14:24:50.072: User switched to scene 'spo_platinum'
14:24:53.901: User Removed source 'loopy_sponsors_text' (text_ft2_source_v2) from scene 'spo_platinum'
14:24:54.520: User added source 'loopy_sponsors_text' (text_ft2_source_v2) to scene 'spo_platinum'
14:24:59.785: User switched to scene 'spo_gold'
14:25:02.461: X Error: BadWindow (invalid Window parameter), Major opcode: 20, Minor opcode: 0, Serial: 36950
14:25:02.462: X Error: BadWindow (invalid Window parameter), Major opcode: 20, Minor opcode: 0, Serial: 36951
14:25:02.462: User Removed source 'loopy_sponsors_text' (text_ft2_source_v2) from scene 'spo_gold'
14:25:02.464: X Error: BadWindow (invalid Window parameter), Major opcode: 20, Minor opcode: 0, Serial: 36955
14:25:02.467: X Error: BadWindow (invalid Window parameter), Major opcode: 20, Minor opcode: 0, Serial: 36964
14:25:02.468: X Error: BadWindow (invalid Window parameter), Major opcode: 20, Minor opcode: 0, Serial: 36965
14:25:02.934: User added source 'loopy_sponsors_text' (text_ft2_source_v2) to scene 'spo_gold'
14:25:11.028: User switched to scene 'spo_silver'
14:25:14.013: User switched to scene 'spo_platinum'
14:25:14.657: User switched to scene 'welcome'
14:25:14.903: User switched to scene 'lower-third-with-wallpaper'
14:25:15.408: User switched to scene 'welcome'
14:25:16.340: User switched to scene 'spo_platinum'
14:25:19.013: User switched to scene 'welcome'
14:25:20.201: User switched to scene 'spo_platinum'
14:25:21.392: User switched to scene 'spo_gold'
14:25:22.645: User switched to scene 'spo_platinum'
14:25:22.907: User switched to scene 'welcome'
14:25:23.647: User switched to scene 'spo_platinum'
14:25:26.403: User switched to scene 'welcome'
14:25:27.475: User switched to scene 'spo_platinum'
14:25:29.266: User switched to scene 'spo_gold'
14:25:32.111: User switched to scene 'spo_silver'
14:25:34.015: User switched to scene 'spo_platinum announce'
14:25:35.503: User switched to scene 'spo_gold_announce'
14:25:36.663: User switched to scene 'spo_silver_announce'
14:25:37.671: User switched to scene 'spo_gold_announce'
14:25:37.957: User switched to scene 'spo_platinum announce'
14:26:12.169: User switched to scene 'spo_silver'
14:26:13.129: User switched to scene 'spo_platinum announce'
14:26:22.186: User switched to scene 'spo_silver'
14:26:22.917: User switched to scene 'spo_platinum announce'
14:27:51.110: User switched to scene 'spo_silver'
14:27:51.853: User switched to scene 'spo_platinum announce'
16:28:57.305: [adv-ss] detected busy loop - refusing to sleep less than 1ms
16:48:20.558: X Error: BadWindow (invalid Window parameter), Major opcode: 20, Minor opcode: 0, Serial: 639693
16:48:20.558: X Error: BadWindow (invalid Window parameter), Major opcode: 20, Minor opcode: 0, Serial: 639695
16:48:20.567: X Error: BadWindow (invalid Window parameter), Major opcode: 20, Minor opcode: 0, Serial: 639697
16:48:20.858: X Error: BadWindow (invalid Window parameter), Major opcode: 20, Minor opcode: 0, Serial: 639699
16:48:20.858: X Error: BadWindow (invalid Window parameter), Major opcode: 20, Minor opcode: 0, Serial: 639701
16:48:20.858: X Error: BadWindow (invalid Window parameter), Major opcode: 20, Minor opcode: 0, Serial: 639703
16:48:22.364: X Error: BadWindow (invalid Window parameter), Major opcode: 20, Minor opcode: 0, Serial: 639797
16:48:22.364: X Error: BadWindow (invalid Window parameter), Major opcode: 20, Minor opcode: 0, Serial: 639799
16:48:22.365: X Error: BadWindow (invalid Window parameter), Major opcode: 20, Minor opcode: 0, Serial: 639801
16:48:22.663: X Error: BadWindow (invalid Window parameter), Major opcode: 20, Minor opcode: 0, Serial: 639803
16:48:22.664: X Error: BadWindow (invalid Window parameter), Major opcode: 20, Minor opcode: 0, Serial: 639805
16:48:22.664: X Error: BadWindow (invalid Window parameter), Major opcode: 20, Minor opcode: 0, Serial: 639807
16:48:23.866: X Error: BadWindow (invalid Window parameter), Major opcode: 20, Minor opcode: 0, Serial: 639884
16:48:23.866: X Error: BadWindow (invalid Window parameter), Major opcode: 20, Minor opcode: 0, Serial: 639886
16:48:23.867: X Error: BadWindow (invalid Window parameter), Major opcode: 20, Minor opcode: 0, Serial: 639888
16:48:24.166: X Error: BadWindow (invalid Window parameter), Major opcode: 20, Minor opcode: 0, Serial: 639890
16:48:24.167: X Error: BadWindow (invalid Window parameter), Major opcode: 20, Minor opcode: 0, Serial: 639892
16:48:24.168: X Error: BadWindow (invalid Window parameter), Major opcode: 20, Minor opcode: 0, Serial: 639894
16:48:24.488: X Error: BadWindow (invalid Window parameter), Major opcode: 20, Minor opcode: 0, Serial: 639918
16:48:24.491: X Error: BadWindow (invalid Window parameter), Major opcode: 20, Minor opcode: 0, Serial: 639919
16:48:24.491: X Error: BadWindow (invalid Window parameter), Major opcode: 20, Minor opcode: 0, Serial: 639920
16:48:24.491: X Error: BadWindow (invalid Window parameter), Major opcode: 20, Minor opcode: 0, Serial: 639921
16:48:25.668: ==== Shutting down ==================================================
16:48:25.694: X Error: BadWindow (invalid Window parameter), Major opcode: 20, Minor opcode: 0, Serial: 639992
16:48:25.695: X Error: BadWindow (invalid Window parameter), Major opcode: 20, Minor opcode: 0, Serial: 639994
16:48:25.695: X Error: BadWindow (invalid Window parameter), Major opcode: 20, Minor opcode: 0, Serial: 639996
16:48:25.695: [adv-ss] stopped
16:48:25.696: [adv-ss] trying to reconnect to  in 10 seconds.
16:48:25.696: [adv-ss] reset transition behaviour to adjust active transition type
16:48:25.696: [adv-ss] started
16:48:25.697: pulse-input: Stopped recording from 'alsa_output.pci-0000_03_00.1.hdmi-stereo-extra2.monitor'
16:48:25.699: pulse-input: Got 371741 packets with 446089200 frames
16:48:25.699: pulse-input: Stopped recording from 'alsa_input.usb-046d_C922_Pro_Stream_Webcam_4B3DD6BF-02.analog-stereo'
16:48:25.699: pulse-input: Got 372169 packets with 297735200 frames
